<Versichertenakte>
0
<idx>
138164870
pfl

31.01.2017
BKK Schwenninger Villingen-Schwenningen
Itzehoe
Speckien
Renate
16.06.1938
Pflege.Vers.
Gutachten
48A2AE6985C69F37C1257BB000326585


</idx>
<img>
ga_138164870_0000n.PDF
reha_138164870_0001n.PDF
pfa_138164870_0002n.PDF
himi_138164870_0003n.PDF
</img>
</Versichertenakte>